{
    "apiVersion": "v1",
    "items": [
        {
            "apiVersion": "cloud.debian.org/v1alpha1",
            "data": {
                "info": {
                    "arch": "arm64",
                    "build_id": "cloud-admin-team-master",
                    "release": "buster",
                    "release_baseid": "10",
                    "release_id": "10",
                    "type": "official",
                    "vendor": "generic",
                    "version": "20190909-10"
                },
                "packages": [
                    {
                        "name": "adduser",
                        "version": "3.118"
                    },
                    {
                        "name": "apparmor:arm64",
                        "version": "2.13.2-10"
                    },
                    {
                        "name": "apt:arm64",
                        "version": "1.8.2"
                    },
                    {
                        "name": "apt-utils:arm64",
                        "version": "1.8.2"
                    },
                    {
                        "name": "base-files:arm64",
                        "version": "10.3+deb10u1"
                    },
                    {
                        "name": "base-passwd:arm64",
                        "version": "3.5.46"
                    },
                    {
                        "name": "bash:arm64",
                        "version": "5.0-4"
                    },
                    {
                        "name": "bsdmainutils:arm64",
                        "version": "11.1.2+b1"
                    },
                    {
                        "name": "bsdutils:arm64",
                        "version": "1:2.33.1-0.1"
                    },
                    {
                        "name": "ca-certificates",
                        "version": "20190110"
                    },
                    {
                        "name": "chrony:arm64",
                        "version": "3.4-4"
                    },
                    {
                        "name": "cloud-guest-utils",
                        "version": "0.29-1"
                    },
                    {
                        "name": "cloud-image-utils",
                        "version": "0.29-1"
                    },
                    {
                        "name": "cloud-init",
                        "version": "18.3-6"
                    },
                    {
                        "name": "cloud-initramfs-growroot",
                        "version": "0.18.debian7"
                    },
                    {
                        "name": "cloud-utils",
                        "version": "0.29-1"
                    },
                    {
                        "name": "coreutils:arm64",
                        "version": "8.30-3"
                    },
                    {
                        "name": "cpio:arm64",
                        "version": "2.12+dfsg-9"
                    },
                    {
                        "name": "cron:arm64",
                        "version": "3.0pl1-134"
                    },
                    {
                        "name": "dash:arm64",
                        "version": "0.5.10.2-5"
                    },
                    {
                        "name": "dbus:arm64",
                        "version": "1.12.16-1"
                    },
                    {
                        "name": "debconf",
                        "version": "1.5.71"
                    },
                    {
                        "name": "debian-archive-keyring",
                        "version": "2019.1"
                    },
                    {
                        "name": "debianutils:arm64",
                        "version": "4.8.6.1"
                    },
                    {
                        "name": "diffutils:arm64",
                        "version": "1:3.7-3"
                    },
                    {
                        "name": "distro-info-data",
                        "version": "0.41"
                    },
                    {
                        "name": "dmsetup:arm64",
                        "version": "2:1.02.155-3"
                    },
                    {
                        "name": "dpkg:arm64",
                        "version": "1.19.7"
                    },
                    {
                        "name": "e2fsprogs:arm64",
                        "version": "1.44.5-1+deb10u1"
                    },
                    {
                        "name": "fdisk:arm64",
                        "version": "2.33.1-0.1"
                    },
                    {
                        "name": "file:arm64",
                        "version": "1:5.35-4"
                    },
                    {
                        "name": "findutils:arm64",
                        "version": "4.6.0+git+20190209-2"
                    },
                    {
                        "name": "gcc-8-base:arm64",
                        "version": "8.3.0-6"
                    },
                    {
                        "name": "gdisk:arm64",
                        "version": "1.0.3-1.1"
                    },
                    {
                        "name": "genisoimage:arm64",
                        "version": "9:1.1.11-3+b2"
                    },
                    {
                        "name": "gettext-base:arm64",
                        "version": "0.19.8.1-9"
                    },
                    {
                        "name": "gpgv:arm64",
                        "version": "2.2.12-1+deb10u1"
                    },
                    {
                        "name": "grep:arm64",
                        "version": "3.3-1"
                    },
                    {
                        "name": "grub-common:arm64",
                        "version": "2.02+dfsg1-20"
                    },
                    {
                        "name": "grub-efi-arm64:arm64",
                        "version": "2.02+dfsg1-20"
                    },
                    {
                        "name": "grub-efi-arm64-bin:arm64",
                        "version": "2.02+dfsg1-20"
                    },
                    {
                        "name": "grub2-common:arm64",
                        "version": "2.02+dfsg1-20"
                    },
                    {
                        "name": "gzip:arm64",
                        "version": "1.9-3"
                    },
                    {
                        "name": "hostname:arm64",
                        "version": "3.21"
                    },
                    {
                        "name": "ifupdown:arm64",
                        "version": "0.8.35"
                    },
                    {
                        "name": "init:arm64",
                        "version": "1.56+nmu1"
                    },
                    {
                        "name": "init-system-helpers",
                        "version": "1.56+nmu1"
                    },
                    {
                        "name": "initramfs-tools",
                        "version": "0.133+deb10u1"
                    },
                    {
                        "name": "initramfs-tools-core",
                        "version": "0.133+deb10u1"
                    },
                    {
                        "name": "iproute2:arm64",
                        "version": "4.20.0-2"
                    },
                    {
                        "name": "iptables:arm64",
                        "version": "1.8.2-4"
                    },
                    {
                        "name": "iputils-ping:arm64",
                        "version": "3:20180629-2"
                    },
                    {
                        "name": "isc-dhcp-client:arm64",
                        "version": "4.4.1-2"
                    },
                    {
                        "name": "klibc-utils:arm64",
                        "version": "2.0.6-1"
                    },
                    {
                        "name": "kmod:arm64",
                        "version": "26-1"
                    },
                    {
                        "name": "less:arm64",
                        "version": "487-0.1+b1"
                    },
                    {
                        "name": "libacl1:arm64",
                        "version": "2.2.53-4"
                    },
                    {
                        "name": "libaio1:arm64",
                        "version": "0.3.112-3"
                    },
                    {
                        "name": "libapparmor1:arm64",
                        "version": "2.13.2-10"
                    },
                    {
                        "name": "libapt-inst2.0:arm64",
                        "version": "1.8.2"
                    },
                    {
                        "name": "libapt-pkg5.0:arm64",
                        "version": "1.8.2"
                    },
                    {
                        "name": "libargon2-1:arm64",
                        "version": "0~20171227-0.2"
                    },
                    {
                        "name": "libattr1:arm64",
                        "version": "1:2.4.48-4"
                    },
                    {
                        "name": "libaudit-common",
                        "version": "1:2.8.4-3"
                    },
                    {
                        "name": "libaudit1:arm64",
                        "version": "1:2.8.4-3"
                    },
                    {
                        "name": "libblkid1:arm64",
                        "version": "2.33.1-0.1"
                    },
                    {
                        "name": "libbsd0:arm64",
                        "version": "0.9.1-2"
                    },
                    {
                        "name": "libbz2-1.0:arm64",
                        "version": "1.0.6-9.2~deb10u1"
                    },
                    {
                        "name": "libc-bin:arm64",
                        "version": "2.28-10"
                    },
                    {
                        "name": "libc-l10n",
                        "version": "2.28-10"
                    },
                    {
                        "name": "libc6:arm64",
                        "version": "2.28-10"
                    },
                    {
                        "name": "libcap-ng0:arm64",
                        "version": "0.7.9-2"
                    },
                    {
                        "name": "libcap2:arm64",
                        "version": "1:2.25-2"
                    },
                    {
                        "name": "libcap2-bin:arm64",
                        "version": "1:2.25-2"
                    },
                    {
                        "name": "libcom-err2:arm64",
                        "version": "1.44.5-1+deb10u1"
                    },
                    {
                        "name": "libcryptsetup12:arm64",
                        "version": "2:2.1.0-5+deb10u2"
                    },
                    {
                        "name": "libdb5.3:arm64",
                        "version": "5.3.28+dfsg1-0.5"
                    },
                    {
                        "name": "libdbus-1-3:arm64",
                        "version": "1.12.16-1"
                    },
                    {
                        "name": "libdebconfclient0:arm64",
                        "version": "0.249"
                    },
                    {
                        "name": "libdevmapper1.02.1:arm64",
                        "version": "2:1.02.155-3"
                    },
                    {
                        "name": "libdns-export1104:arm64",
                        "version": "1:9.11.5.P4+dfsg-5.1"
                    },
                    {
                        "name": "libedit2:arm64",
                        "version": "3.1-20181209-1"
                    },
                    {
                        "name": "libefiboot1:arm64",
                        "version": "37-2"
                    },
                    {
                        "name": "libefivar1:arm64",
                        "version": "37-2"
                    },
                    {
                        "name": "libelf1:arm64",
                        "version": "0.176-1.1"
                    },
                    {
                        "name": "libestr0:arm64",
                        "version": "0.1.10-2.1"
                    },
                    {
                        "name": "libexpat1:arm64",
                        "version": "2.2.6-2"
                    },
                    {
                        "name": "libext2fs2:arm64",
                        "version": "1.44.5-1+deb10u1"
                    },
                    {
                        "name": "libfastjson4:arm64",
                        "version": "0.99.8-2"
                    },
                    {
                        "name": "libfdisk1:arm64",
                        "version": "2.33.1-0.1"
                    },
                    {
                        "name": "libffi6:arm64",
                        "version": "3.2.1-9"
                    },
                    {
                        "name": "libfreetype6:arm64",
                        "version": "2.9.1-3"
                    },
                    {
                        "name": "libfuse2:arm64",
                        "version": "2.9.9-1"
                    },
                    {
                        "name": "libgcc1:arm64",
                        "version": "1:8.3.0-6"
                    },
                    {
                        "name": "libgcrypt20:arm64",
                        "version": "1.8.4-5"
                    },
                    {
                        "name": "libglib2.0-0:arm64",
                        "version": "2.58.3-2+deb10u1"
                    },
                    {
                        "name": "libgmp10:arm64",
                        "version": "2:6.1.2+dfsg-4"
                    },
                    {
                        "name": "libgnutls30:arm64",
                        "version": "3.6.7-4"
                    },
                    {
                        "name": "libgpg-error0:arm64",
                        "version": "1.35-1"
                    },
                    {
                        "name": "libgssapi-krb5-2:arm64",
                        "version": "1.17-3"
                    },
                    {
                        "name": "libhogweed4:arm64",
                        "version": "3.4.1-1"
                    },
                    {
                        "name": "libidn11:arm64",
                        "version": "1.33-2.2"
                    },
                    {
                        "name": "libidn2-0:arm64",
                        "version": "2.0.5-1"
                    },
                    {
                        "name": "libip4tc0:arm64",
                        "version": "1.8.2-4"
                    },
                    {
                        "name": "libip6tc0:arm64",
                        "version": "1.8.2-4"
                    },
                    {
                        "name": "libiptc0:arm64",
                        "version": "1.8.2-4"
                    },
                    {
                        "name": "libisc-export1100:arm64",
                        "version": "1:9.11.5.P4+dfsg-5.1"
                    },
                    {
                        "name": "libjson-c3:arm64",
                        "version": "0.12.1+ds-2"
                    },
                    {
                        "name": "libk5crypto3:arm64",
                        "version": "1.17-3"
                    },
                    {
                        "name": "libkeyutils1:arm64",
                        "version": "1.6-6"
                    },
                    {
                        "name": "libklibc:arm64",
                        "version": "2.0.6-1"
                    },
                    {
                        "name": "libkmod2:arm64",
                        "version": "26-1"
                    },
                    {
                        "name": "libkrb5-3:arm64",
                        "version": "1.17-3"
                    },
                    {
                        "name": "libkrb5support0:arm64",
                        "version": "1.17-3"
                    },
                    {
                        "name": "liblognorm5:arm64",
                        "version": "2.0.5-1"
                    },
                    {
                        "name": "liblz4-1:arm64",
                        "version": "1.8.3-1"
                    },
                    {
                        "name": "liblzma5:arm64",
                        "version": "5.2.4-1"
                    },
                    {
                        "name": "libmagic-mgc:arm64",
                        "version": "1:5.35-4"
                    },
                    {
                        "name": "libmagic1:arm64",
                        "version": "1:5.35-4"
                    },
                    {
                        "name": "libmnl0:arm64",
                        "version": "1.0.4-2"
                    },
                    {
                        "name": "libmount1:arm64",
                        "version": "2.33.1-0.1"
                    },
                    {
                        "name": "libmpdec2:arm64",
                        "version": "2.4.2-2"
                    },
                    {
                        "name": "libncurses6:arm64",
                        "version": "6.1+20181013-2+deb10u1"
                    },
                    {
                        "name": "libncursesw6:arm64",
                        "version": "6.1+20181013-2+deb10u1"
                    },
                    {
                        "name": "libnetfilter-conntrack3:arm64",
                        "version": "1.0.7-1"
                    },
                    {
                        "name": "libnettle6:arm64",
                        "version": "3.4.1-1"
                    },
                    {
                        "name": "libnewt0.52:arm64",
                        "version": "0.52.20-8"
                    },
                    {
                        "name": "libnfnetlink0:arm64",
                        "version": "1.0.1-3+b1"
                    },
                    {
                        "name": "libnftnl11:arm64",
                        "version": "1.1.2-2"
                    },
                    {
                        "name": "libp11-kit0:arm64",
                        "version": "0.23.15-2"
                    },
                    {
                        "name": "libpam-modules:arm64",
                        "version": "1.3.1-5"
                    },
                    {
                        "name": "libpam-modules-bin:arm64",
                        "version": "1.3.1-5"
                    },
                    {
                        "name": "libpam-runtime",
                        "version": "1.3.1-5"
                    },
                    {
                        "name": "libpam-systemd:arm64",
                        "version": "241-7~deb10u1"
                    },
                    {
                        "name": "libpam0g:arm64",
                        "version": "1.3.1-5"
                    },
                    {
                        "name": "libpcre2-8-0:arm64",
                        "version": "10.32-5"
                    },
                    {
                        "name": "libpcre3:arm64",
                        "version": "2:8.39-12"
                    },
                    {
                        "name": "libpng16-16:arm64",
                        "version": "1.6.36-6"
                    },
                    {
                        "name": "libpopt0:arm64",
                        "version": "1.16-12"
                    },
                    {
                        "name": "libprocps7:arm64",
                        "version": "2:3.3.15-2"
                    },
                    {
                        "name": "libpsl5:arm64",
                        "version": "0.20.2-2"
                    },
                    {
                        "name": "libpython3-stdlib:arm64",
                        "version": "3.7.3-1"
                    },
                    {
                        "name": "libpython3.7-minimal:arm64",
                        "version": "3.7.3-2"
                    },
                    {
                        "name": "libpython3.7-stdlib:arm64",
                        "version": "3.7.3-2"
                    },
                    {
                        "name": "libreadline7:arm64",
                        "version": "7.0-5"
                    },
                    {
                        "name": "libseccomp2:arm64",
                        "version": "2.3.3-4"
                    },
                    {
                        "name": "libselinux1:arm64",
                        "version": "2.8-1+b1"
                    },
                    {
                        "name": "libsemanage-common",
                        "version": "2.8-2"
                    },
                    {
                        "name": "libsemanage1:arm64",
                        "version": "2.8-2"
                    },
                    {
                        "name": "libsepol1:arm64",
                        "version": "2.8-1"
                    },
                    {
                        "name": "libslang2:arm64",
                        "version": "2.3.2-2"
                    },
                    {
                        "name": "libsmartcols1:arm64",
                        "version": "2.33.1-0.1"
                    },
                    {
                        "name": "libsqlite3-0:arm64",
                        "version": "3.27.2-3"
                    },
                    {
                        "name": "libss2:arm64",
                        "version": "1.44.5-1+deb10u1"
                    },
                    {
                        "name": "libssl1.1:arm64",
                        "version": "1.1.1c-1"
                    },
                    {
                        "name": "libstdc++6:arm64",
                        "version": "8.3.0-6"
                    },
                    {
                        "name": "libsystemd0:arm64",
                        "version": "241-7~deb10u1"
                    },
                    {
                        "name": "libtasn1-6:arm64",
                        "version": "4.13-3"
                    },
                    {
                        "name": "libtinfo6:arm64",
                        "version": "6.1+20181013-2+deb10u1"
                    },
                    {
                        "name": "libudev1:arm64",
                        "version": "241-7~deb10u1"
                    },
                    {
                        "name": "libunistring2:arm64",
                        "version": "0.9.10-1"
                    },
                    {
                        "name": "libuuid1:arm64",
                        "version": "2.33.1-0.1"
                    },
                    {
                        "name": "libwrap0:arm64",
                        "version": "7.6.q-28"
                    },
                    {
                        "name": "libxtables12:arm64",
                        "version": "1.8.2-4"
                    },
                    {
                        "name": "libyaml-0-2:arm64",
                        "version": "0.2.1-1"
                    },
                    {
                        "name": "libzstd1:arm64",
                        "version": "1.3.8+dfsg-3"
                    },
                    {
                        "name": "linux-base",
                        "version": "4.6"
                    },
                    {
                        "name": "linux-image-4.19.0-6-arm64:arm64",
                        "version": "4.19.67-2"
                    },
                    {
                        "name": "linux-image-arm64:arm64",
                        "version": "4.19+105+deb10u1"
                    },
                    {
                        "name": "locales",
                        "version": "2.28-10"
                    },
                    {
                        "name": "login:arm64",
                        "version": "1:4.5-1.1"
                    },
                    {
                        "name": "logrotate:arm64",
                        "version": "3.14.0-4"
                    },
                    {
                        "name": "lsb-base",
                        "version": "10.2019051400"
                    },
                    {
                        "name": "lsb-release",
                        "version": "10.2019051400"
                    },
                    {
                        "name": "mawk:arm64",
                        "version": "1.3.3-17+b3"
                    },
                    {
                        "name": "mime-support",
                        "version": "3.62"
                    },
                    {
                        "name": "mount:arm64",
                        "version": "2.33.1-0.1"
                    },
                    {
                        "name": "nano:arm64",
                        "version": "3.2-3"
                    },
                    {
                        "name": "ncurses-base",
                        "version": "6.1+20181013-2+deb10u1"
                    },
                    {
                        "name": "ncurses-bin:arm64",
                        "version": "6.1+20181013-2+deb10u1"
                    },
                    {
                        "name": "net-tools:arm64",
                        "version": "1.60+git20180626.aebd88e-1"
                    },
                    {
                        "name": "netbase",
                        "version": "5.6"
                    },
                    {
                        "name": "openssh-client:arm64",
                        "version": "1:7.9p1-10"
                    },
                    {
                        "name": "openssh-server:arm64",
                        "version": "1:7.9p1-10"
                    },
                    {
                        "name": "openssh-sftp-server:arm64",
                        "version": "1:7.9p1-10"
                    },
                    {
                        "name": "openssl:arm64",
                        "version": "1.1.1c-1"
                    },
                    {
                        "name": "passwd:arm64",
                        "version": "1:4.5-1.1"
                    },
                    {
                        "name": "perl-base:arm64",
                        "version": "5.28.1-6"
                    },
                    {
                        "name": "procps:arm64",
                        "version": "2:3.3.15-2"
                    },
                    {
                        "name": "python-apt-common",
                        "version": "1.8.4"
                    },
                    {
                        "name": "python3:arm64",
                        "version": "3.7.3-1"
                    },
                    {
                        "name": "python3-apt:arm64",
                        "version": "1.8.4"
                    },
                    {
                        "name": "python3-asn1crypto",
                        "version": "0.24.0-1"
                    },
                    {
                        "name": "python3-blinker",
                        "version": "1.4+dfsg1-0.2"
                    },
                    {
                        "name": "python3-certifi",
                        "version": "2018.8.24-1"
                    },
                    {
                        "name": "python3-cffi-backend:arm64",
                        "version": "1.12.2-1"
                    },
                    {
                        "name": "python3-chardet",
                        "version": "3.0.4-3"
                    },
                    {
                        "name": "python3-configobj",
                        "version": "5.0.6-3"
                    },
                    {
                        "name": "python3-cryptography:arm64",
                        "version": "2.6.1-3"
                    },
                    {
                        "name": "python3-dbus:arm64",
                        "version": "1.2.8-3"
                    },
                    {
                        "name": "python3-distro-info",
                        "version": "0.21"
                    },
                    {
                        "name": "python3-idna",
                        "version": "2.6-1"
                    },
                    {
                        "name": "python3-jinja2",
                        "version": "2.10-2"
                    },
                    {
                        "name": "python3-json-pointer",
                        "version": "1.10-1"
                    },
                    {
                        "name": "python3-jsonpatch",
                        "version": "1.21-1"
                    },
                    {
                        "name": "python3-jsonschema",
                        "version": "2.6.0-4"
                    },
                    {
                        "name": "python3-jwt",
                        "version": "1.7.0-2"
                    },
                    {
                        "name": "python3-markupsafe:arm64",
                        "version": "1.1.0-1"
                    },
                    {
                        "name": "python3-minimal:arm64",
                        "version": "3.7.3-1"
                    },
                    {
                        "name": "python3-oauthlib",
                        "version": "2.1.0-1"
                    },
                    {
                        "name": "python3-pkg-resources",
                        "version": "40.8.0-1"
                    },
                    {
                        "name": "python3-requests",
                        "version": "2.21.0-1"
                    },
                    {
                        "name": "python3-six",
                        "version": "1.12.0-1"
                    },
                    {
                        "name": "python3-urllib3",
                        "version": "1.24.1-1"
                    },
                    {
                        "name": "python3-yaml:arm64",
                        "version": "3.13-2"
                    },
                    {
                        "name": "python3.7:arm64",
                        "version": "3.7.3-2"
                    },
                    {
                        "name": "python3.7-minimal:arm64",
                        "version": "3.7.3-2"
                    },
                    {
                        "name": "qemu-utils:arm64",
                        "version": "1:3.1+dfsg-8+deb10u2"
                    },
                    {
                        "name": "readline-common",
                        "version": "7.0-5"
                    },
                    {
                        "name": "rsyslog:arm64",
                        "version": "8.1901.0-1"
                    },
                    {
                        "name": "sed:arm64",
                        "version": "4.7-1"
                    },
                    {
                        "name": "sensible-utils",
                        "version": "0.0.12"
                    },
                    {
                        "name": "sudo:arm64",
                        "version": "1.8.27-1"
                    },
                    {
                        "name": "systemd:arm64",
                        "version": "241-7~deb10u1"
                    },
                    {
                        "name": "systemd-sysv:arm64",
                        "version": "241-7~deb10u1"
                    },
                    {
                        "name": "sysvinit-utils:arm64",
                        "version": "2.93-8"
                    },
                    {
                        "name": "tar:arm64",
                        "version": "1.30+dfsg-6"
                    },
                    {
                        "name": "tzdata",
                        "version": "2019b-0+deb10u1"
                    },
                    {
                        "name": "ucf",
                        "version": "3.0038+nmu1"
                    },
                    {
                        "name": "udev:arm64",
                        "version": "241-7~deb10u1"
                    },
                    {
                        "name": "unattended-upgrades",
                        "version": "1.11.2"
                    },
                    {
                        "name": "util-linux:arm64",
                        "version": "2.33.1-0.1"
                    },
                    {
                        "name": "vim-common",
                        "version": "2:8.1.0875-5"
                    },
                    {
                        "name": "vim-tiny:arm64",
                        "version": "2:8.1.0875-5"
                    },
                    {
                        "name": "wget:arm64",
                        "version": "1.20.1-1.1"
                    },
                    {
                        "name": "whiptail:arm64",
                        "version": "0.52.20-8"
                    },
                    {
                        "name": "xxd:arm64",
                        "version": "2:8.1.0875-5"
                    },
                    {
                        "name": "xz-utils:arm64",
                        "version": "5.2.4-1"
                    },
                    {
                        "name": "zlib1g:arm64",
                        "version": "1:1.2.11.dfsg-1"
                    }
                ]
            },
            "kind": "Build",
            "metadata": {
                "labels": {
                    "cloud.debian.org/vendor": "generic",
                    "cloud.debian.org/version": "20190909-10",
                    "debian.org/arch": "arm64",
                    "debian.org/dist": "debian",
                    "debian.org/release": "buster"
                },
                "uid": "2c3153c2-2e3a-46e6-971f-e692fe134fb2"
            }
        },
        {
            "apiVersion": "cloud.debian.org/v1alpha1",
            "data": {
                "familyRef": null,
                "provider": "cloud.debian.org",
                "ref": "buster/daily/20190909-10/debian-10-generic-arm64-daily-20190909-10.tar.xz"
            },
            "kind": "Upload",
            "metadata": {
                "labels": {
                    "cloud.debian.org/vendor": "generic",
                    "cloud.debian.org/version": "20190909-10",
                    "debian.org/arch": "arm64",
                    "debian.org/dist": "debian",
                    "debian.org/release": "buster",
                    "upload.cloud.debian.org/image-format": "internal",
                    "upload.cloud.debian.org/type": "daily"
                },
                "uid": "a3b074b1-983f-444d-bb31-b54811279b08"
            }
        },
        {
            "apiVersion": "cloud.debian.org/v1alpha1",
            "data": {
                "familyRef": null,
                "provider": "cloud.debian.org",
                "ref": "buster/daily/20190909-10/debian-10-generic-arm64-daily-20190909-10.qcow2"
            },
            "kind": "Upload",
            "metadata": {
                "labels": {
                    "cloud.debian.org/vendor": "generic",
                    "cloud.debian.org/version": "20190909-10",
                    "debian.org/arch": "arm64",
                    "debian.org/dist": "debian",
                    "debian.org/release": "buster",
                    "upload.cloud.debian.org/image-format": "qcow2",
                    "upload.cloud.debian.org/type": "daily"
                },
                "uid": "363229b9-69b6-4cc7-bf89-bdeed81408a9"
            }
        },
        {
            "apiVersion": "cloud.debian.org/v1alpha1",
            "data": {
                "familyRef": null,
                "provider": "cloud.debian.org",
                "ref": "buster/20190909-10/debian-10-generic-arm64-20190909-10.tar.xz"
            },
            "kind": "Upload",
            "metadata": {
                "labels": {
                    "cloud.debian.org/vendor": "generic",
                    "cloud.debian.org/version": "20190909-10",
                    "debian.org/arch": "arm64",
                    "debian.org/dist": "debian",
                    "debian.org/release": "buster",
                    "upload.cloud.debian.org/image-format": "internal",
                    "upload.cloud.debian.org/type": "release"
                },
                "uid": "b15a6573-d52f-4c32-8165-e079aba0b5f7"
            }
        },
        {
            "apiVersion": "cloud.debian.org/v1alpha1",
            "data": {
                "familyRef": null,
                "provider": "cloud.debian.org",
                "ref": "buster/20190909-10/debian-10-generic-arm64-20190909-10.qcow2"
            },
            "kind": "Upload",
            "metadata": {
                "labels": {
                    "cloud.debian.org/vendor": "generic",
                    "cloud.debian.org/version": "20190909-10",
                    "debian.org/arch": "arm64",
                    "debian.org/dist": "debian",
                    "debian.org/release": "buster",
                    "upload.cloud.debian.org/image-format": "qcow2",
                    "upload.cloud.debian.org/type": "release"
                },
                "uid": "e8f18b35-bf44-491b-8ff5-13af210f3ed7"
            }
        }
    ],
    "kind": "List"
}